.___________..______           ___      .__   __.      _______.     ___        ______ .___________. __    ______   .__   __.      _______.        ___      .______    __  
|           ||   _  \         /   \     |  \ |  |     /       |    /   \      /      ||           ||  |  /  __  \  |  \ |  |     /       |       /   \     |   _  \  |  | 
`---|  |----`|  |_)  |       /  ^  \    |   \|  |    |   (----`   /  ^  \    |  ,----'`---|  |----`|  | |  |  |  | |   \|  |    |   (----`      /  ^  \    |  |_)  | |  | 
    |  |     |      /       /  /_\  \   |  . `  |     \   \      /  /_\  \   |  |         |  |     |  | |  |  |  | |  . `  |     \   \         /  /_\  \   |   ___/  |  | 
    |  |     |  |\  \----. /  _____  \  |  |\   | .----)   |    /  _____  \  |  `----.    |  |     |  | |  `--'  | |  |\   | .----)   |       /  _____  \  |  |      |  | 
    |__|     | _| `._____|/__/     \__\ |__| \__| |_______/    /__/     \__\  \______|    |__|     |__|  \______/  |__| \__| |_______/       /__/     \__\ | _|      |__| 
                                                                                                                                                                          
${application.title} ${application.version}
Powered by Spring Boot ${spring-boot.version}