{
	"info": {
		"_postman_id": "65e4892b-bd0f-48ec-a2e3-5ad64ab57e76",
		"name": "ENNRIQUE",
		"schema": "https://schema.getpostman.com/json/collection/v2.1.0/collection.json"
	},
	"item": [
		{
			"name": "STATUS",
			"event": [
				{
					"listen": "test",
					"script": {
						"id": "e159a039-72b8-4080-90a9-f8dc3eb82dab",
						"exec": [
							"pm.test(\"Status code is 200\",function(){\r",
							"    pm.response.to.have.status(200);\r",
							"    pm.response.to.be.withBody; // body tiene que exitir\r",
							"    pm.response.to.be.json; // además que sea un JSON válido\r",
							"\r",
							"   \r",
							"});\r",
							""
						],
						"type": "text/javascript"
					}
				}
			],
			"request": {
				"method": "GET",
				"header": [],
				"url": {
					"raw": "http://localhost:8081/transactions/search?reference=12345A&channel=ATM",
					"protocol": "http",
					"host": [
						"localhost"
					],
					"port": "8081",
					"path": [
						"transactions",
						"search"
					],
					"query": [
						{
							"key": "reference",
							"value": "12345A"
						},
						{
							"key": "channel",
							"value": "ATM"
						}
					]
				}
			},
			"response": []
		},
		{
			"name": "Business Rules A",
			"event": [
				{
					"listen": "test",
					"script": {
						"id": "d91c286a-5971-4b19-a5ad-0ba60d95d4c8",
						"exec": [
							"/*Dado: una transacción que no está almacenada en nuestro sistema\r",
							"Cuándo: verifico el estado de cualquier canal\r",
							"Entonces: el sistema devuelve el estado 'NO VÁLIDO'*/\r",
							"\r",
							"pm.test(\"reference\", function() {\r",
							"      pm.expect(  pm.response.json().reference).to.equals(\"12345\");\r",
							"});\r",
							"\r",
							"pm.test(\"Status\", function() {\r",
							"      pm.expect(  pm.response.json().status).to.equals(\"INVALID\");\r",
							"});\r",
							"\r",
							"\r",
							"\r",
							""
						],
						"type": "text/javascript"
					}
				}
			],
			"request": {
				"method": "GET",
				"header": [],
				"url": {
					"raw": "http://localhost:8081/transactions/search?reference=12345&channel=ATM",
					"protocol": "http",
					"host": [
						"localhost"
					],
					"port": "8081",
					"path": [
						"transactions",
						"search"
					],
					"query": [
						{
							"key": "reference",
							"value": "12345"
						},
						{
							"key": "channel",
							"value": "ATM"
						}
					]
				}
			},
			"response": []
		},
		{
			"name": "Business Rules B",
			"event": [
				{
					"listen": "test",
					"script": {
						"id": "bae2e866-45cd-4d65-a5cc-4ab3a6632968",
						"exec": [
							"/*Dado: una transacción que se almacena en nuestro sistema\r",
							"Cuándo: Verifico el estado desde el canal CLIENTE o ATM\r",
							"Y la fecha de la transacción es anterior a hoy.\r",
							"Entonces: El sistema devuelve el estado 'SETTLED'\r",
							"Y el monto restando la tarifa */\r",
							"\r",
							"\r",
							"pm.test(\"reference\", function() {\r",
							"      pm.expect(  pm.response.json().reference).to.equals(\"12345B\");\r",
							"});\r",
							"\r",
							"pm.test(\"status\", function() {\r",
							"      pm.expect(  pm.response.json().status).to.equals(\"SETTLED\");\r",
							"});\r",
							"\r",
							"pm.test(\"amount\", function() {\r",
							"      pm.expect(  pm.response.json().amount).to.equals(-195.38);\r",
							"});"
						],
						"type": "text/javascript"
					}
				}
			],
			"request": {
				"method": "GET",
				"header": [],
				"url": {
					"raw": "http://localhost:8081/transactions/search?reference=12345B&channel=CLIENT",
					"protocol": "http",
					"host": [
						"localhost"
					],
					"port": "8081",
					"path": [
						"transactions",
						"search"
					],
					"query": [
						{
							"key": "reference",
							"value": "12345B"
						},
						{
							"key": "channel",
							"value": "CLIENT"
						}
					]
				}
			},
			"response": []
		},
		{
			"name": "Business Rules C",
			"event": [
				{
					"listen": "test",
					"script": {
						"id": "c0696cc1-41d2-4341-a03d-11fc676e2a08",
						"exec": [
							"/*Dado: una transacción que se almacena en nuestro sistema\r",
							"Cuándo: verifico el estado del canal INTERNO\r",
							"Y la fecha de la transacción es anterior a hoy.\r",
							"Entonces: El sistema devuelve el estado 'SETTLED'\r",
							"Y la cantidad\r",
							"Y la tarifa */\r",
							"\r",
							"\r",
							"pm.test(\"reference\", function() {\r",
							"      pm.expect(  pm.response.json().reference).to.equals(\"12345B\");\r",
							"});\r",
							"\r",
							"pm.test(\"status\", function() {\r",
							"      pm.expect(  pm.response.json().status).to.equals(\"SETTLED\");\r",
							"});\r",
							"\r",
							"pm.test(\"amount\", function() {\r",
							"      pm.expect(  pm.response.json().amount).to.equals(195.38);\r",
							"});\r",
							"\r",
							"pm.test(\"fee\", function() {\r",
							"      pm.expect(  pm.response.json().fee).to.equals(3.18);\r",
							"});"
						],
						"type": "text/javascript"
					}
				}
			],
			"request": {
				"method": "GET",
				"header": [],
				"url": {
					"raw": "http://localhost:8081/transactions/search?reference=12345B&channel=INTERNAL",
					"protocol": "http",
					"host": [
						"localhost"
					],
					"port": "8081",
					"path": [
						"transactions",
						"search"
					],
					"query": [
						{
							"key": "reference",
							"value": "12345B"
						},
						{
							"key": "channel",
							"value": "INTERNAL"
						}
					]
				}
			},
			"response": []
		},
		{
			"name": "Business Rules D",
			"event": [
				{
					"listen": "test",
					"script": {
						"id": "db33d32c-d37e-417c-b8b8-a3e53821aa12",
						"exec": [
							"/*Dado: una transacción que se almacena en nuestro sistema\r",
							"Cuándo: Verifico el estado desde el canal CLIENTE o ATM\r",
							"Y la fecha de la transacción es igual a hoy\r",
							"Entonces: el sistema devuelve el estado 'PENDIENTE'\r",
							"Y la cantidad restando la tarifa */\r",
							"\r",
							"\r",
							"pm.test(\"reference\", function() {\r",
							"      pm.expect(  pm.response.json().reference).to.equals(\"12345A\");\r",
							"});\r",
							"\r",
							"pm.test(\"status\", function() {\r",
							"      pm.expect(  pm.response.json().status).to.equals(\"PENDING\");\r",
							"});\r",
							"\r",
							"pm.test(\"amount\", function() {\r",
							"      pm.expect(  pm.response.json().amount).to.equals(190.2);\r",
							"});"
						],
						"type": "text/javascript"
					}
				}
			],
			"request": {
				"method": "GET",
				"header": [],
				"url": {
					"raw": "http://localhost:8081/transactions/search?reference=12345A&channel=ATM",
					"protocol": "http",
					"host": [
						"localhost"
					],
					"port": "8081",
					"path": [
						"transactions",
						"search"
					],
					"query": [
						{
							"key": "reference",
							"value": "12345A"
						},
						{
							"key": "channel",
							"value": "ATM"
						}
					]
				}
			},
			"response": []
		},
		{
			"name": "Business Rules E",
			"event": [
				{
					"listen": "test",
					"script": {
						"id": "d79ef26b-561d-4f8d-a534-73a952d06a94",
						"exec": [
							"/*\r",
							"Dado: una transacción que se almacena en nuestro sistema\r",
							"Cuándo: verifico el estado del canal INTERNO\r",
							"Y la fecha de la transacción es igual a hoy\r",
							"Entonces: el sistema devuelve el estado 'PENDIENTE'\r",
							"Y la cantidad\r",
							"Y la tarifa\r",
							"\r",
							"*/\r",
							"\r",
							"\r",
							"pm.test(\"reference\", function() {\r",
							"      pm.expect(  pm.response.json().reference).to.equals(\"12345A\");\r",
							"});\r",
							"\r",
							"pm.test(\"status\", function() {\r",
							"      pm.expect(  pm.response.json().status).to.equals(\"PENDING\");\r",
							"});\r",
							"\r",
							"pm.test(\"amount\", function() {\r",
							"      pm.expect(  pm.response.json().amount).to.equals(193.38);\r",
							"});\r",
							"\r",
							"pm.test(\"fee\", function() {\r",
							"      pm.expect(  pm.response.json().fee).to.equals(3.18);\r",
							"});"
						],
						"type": "text/javascript"
					}
				}
			],
			"request": {
				"method": "GET",
				"header": [],
				"url": {
					"raw": "http://localhost:8081/transactions/search?reference=12345A&channel=INTERNAL",
					"protocol": "http",
					"host": [
						"localhost"
					],
					"port": "8081",
					"path": [
						"transactions",
						"search"
					],
					"query": [
						{
							"key": "reference",
							"value": "12345A"
						},
						{
							"key": "channel",
							"value": "INTERNAL"
						}
					]
				}
			},
			"response": []
		},
		{
			"name": "Business Rules F",
			"event": [
				{
					"listen": "test",
					"script": {
						"id": "9b88b9a0-b47f-46bf-874a-4999b8f8676b",
						"exec": [
							"/*\r",
							"\r",
							"Dado: una transacción que se almacena en nuestro sistema\r",
							"Cuándo: Verifico el estado del canal CLIENTE\r",
							"Y la fecha de la transacción es mayor que hoy\r",
							"Entonces: el sistema devuelve el estado 'FUTURO'\r",
							"Y la cantidad restando la tarifa\r",
							"*/\r",
							"\r",
							"\r",
							"\r",
							"pm.test(\"reference\", function() {\r",
							"      pm.expect(  pm.response.json().reference).to.equals(\"12345D\");\r",
							"});\r",
							"\r",
							"pm.test(\"status\", function() {\r",
							"      pm.expect(  pm.response.json().status).to.equals(\"FUTURE\");\r",
							"});\r",
							"\r",
							"pm.test(\"amount\", function() {\r",
							"      pm.expect(  pm.response.json().amount).to.equals(-193.38);\r",
							"});\r",
							""
						],
						"type": "text/javascript"
					}
				}
			],
			"request": {
				"method": "GET",
				"header": [],
				"url": {
					"raw": "http://localhost:8081/transactions/search?reference=12345D&channel=CLIENT",
					"protocol": "http",
					"host": [
						"localhost"
					],
					"port": "8081",
					"path": [
						"transactions",
						"search"
					],
					"query": [
						{
							"key": "reference",
							"value": "12345D"
						},
						{
							"key": "channel",
							"value": "CLIENT"
						}
					]
				}
			},
			"response": []
		},
		{
			"name": "Business Rules G",
			"event": [
				{
					"listen": "test",
					"script": {
						"id": "19993b4b-d9b8-4579-99cb-4bc83e587d4c",
						"exec": [
							"/*\r",
							"Dado: una transacción que se almacena en nuestro sistema\r",
							"Cuándo: verifico el estado del canal ATM\r",
							"Y la fecha de la transacción es mayor que hoy\r",
							"Entonces: el sistema devuelve el estado 'PENDIENTE'\r",
							"Y la cantidad restando la tarifa\r",
							"\r",
							"*/\r",
							"\r",
							"pm.test(\"reference\", function() {\r",
							"      pm.expect(  pm.response.json().reference).to.equals(\"12345A\");\r",
							"});\r",
							"\r",
							"pm.test(\"status\", function() {\r",
							"      pm.expect(  pm.response.json().status).to.equals(\"PENDING\");\r",
							"});\r",
							"\r",
							"pm.test(\"amount\", function() {\r",
							"      pm.expect(  pm.response.json().amount).to.equals(190.2);\r",
							"});\r",
							""
						],
						"type": "text/javascript"
					}
				}
			],
			"request": {
				"method": "GET",
				"header": [],
				"url": {
					"raw": "http://localhost:8081/transactions/search?reference=12345A&channel=ATM",
					"protocol": "http",
					"host": [
						"localhost"
					],
					"port": "8081",
					"path": [
						"transactions",
						"search"
					],
					"query": [
						{
							"key": "reference",
							"value": "12345A"
						},
						{
							"key": "channel",
							"value": "ATM"
						}
					]
				}
			},
			"response": []
		},
		{
			"name": "Business Rules H",
			"event": [
				{
					"listen": "test",
					"script": {
						"id": "0c231506-19dd-4105-b923-0ad3095235c3",
						"exec": [
							"/*\r",
							"Dado: una transacción que se almacena en nuestro sistema\r",
							"Cuándo: verifico el estado del canal INTERNO\r",
							"Y la fecha de la transacción es mayor que hoy\r",
							"Entonces: el sistema devuelve el estado 'FUTURO'\r",
							"Y la cantidad\r",
							"Y la tarifa\r",
							"\r",
							"*/\r",
							"\r",
							"pm.test(\"Status Correcto\", function() {\r",
							"      pm.expect(  pm.response.json().reference).to.equals(\"12345D\");\r",
							"});\r",
							"\r",
							"pm.test(\"Status Correcto\", function() {\r",
							"      pm.expect(  pm.response.json().status).to.equals(\"FUTURE\");\r",
							"});\r",
							"\r",
							"pm.test(\"Status Correcto\", function() {\r",
							"      pm.expect(  pm.response.json().amount).to.equals(-193.38);\r",
							"});\r",
							"\r",
							"pm.test(\"Status Correcto\", function() {\r",
							"      pm.expect(  pm.response.json().fee).to.equals(3.18);\r",
							"});"
						],
						"type": "text/javascript"
					}
				}
			],
			"request": {
				"method": "GET",
				"header": [],
				"url": {
					"raw": "http://localhost:8081/transactions/search?reference=12345D&channel=INTERNAL",
					"protocol": "http",
					"host": [
						"localhost"
					],
					"port": "8081",
					"path": [
						"transactions",
						"search"
					],
					"query": [
						{
							"key": "reference",
							"value": "12345D"
						},
						{
							"key": "channel",
							"value": "INTERNAL"
						}
					]
				}
			},
			"response": []
		},
		{
			"name": "accounts ",
			"request": {
				"method": "GET",
				"header": [],
				"url": {
					"raw": ""
				}
			},
			"response": []
		}
	],
	"protocolProfileBehavior": {}
}